-- Merging decision tree log ---
manifest
ADDED from /Users/Celso/Desktop/react/Capgemini/android/app/src/main/AndroidManifest.xml:1:1-25:12
INJECTED from /Users/Celso/Desktop/react/Capgemini/android/app/src/main/AndroidManifest.xml:1:1-25:12
INJECTED from /Users/Celso/Desktop/react/Capgemini/android/app/src/main/AndroidManifest.xml:1:1-25:12
INJECTED from /Users/Celso/Desktop/react/Capgemini/android/app/src/main/AndroidManifest.xml:1:1-25:12
MERGED from /Users/Celso/Desktop/react/Capgemini/android/app/src/main/AndroidManifest.xml:1:1-25:12
MERGED from [com.facebook.flipper:flipper:0.75.1] /Users/Celso/.gradle/caches/transforms-2/files-2.1/a8f6015f96666ab8d93bfe5b64998bc8/jetified-flipper-0.75.1/AndroidManifest.xml:8:1-18:12
MERGED from [com.facebook.flipper:flipper-network-plugin:0.75.1] /Users/Celso/.gradle/caches/transforms-2/files-2.1/d8279ebfbcca51b68586de1b9bc17210/jetified-flipper-network-plugin-0.75.1/AndroidManifest.xml:8:1-15:12
MERGED from [com.facebook.flipper:flipper-fresco-plugin:0.75.1] /Users/Celso/.gradle/caches/transforms-2/files-2.1/13e0ca18817a9e59a8c4a94704ec8c3c/jetified-flipper-fresco-plugin-0.75.1/AndroidManifest.xml:8:1-15:12
MERGED from [com.facebook.react:react-native:0.64.1] /Users/Celso/.gradle/caches/transforms-2/files-2.1/8d2282471b47ce9a43adfd1155d78528/jetified-react-native-0.64.1/AndroidManifest.xml:2:1-13:12
MERGED from [androidx.swiperefreshlayout:swiperefreshlayout:1.0.0] /Users/Celso/.gradle/caches/transforms-2/files-2.1/5c64f35c4f864d4cd139ccbbff91ceb9/swiperefreshlayout-1.0.0/AndroidManifest.xml:17:1-22:12
MERGED from [org.webkit:android-jsc:r245459] /Users/Celso/.gradle/caches/transforms-2/files-2.1/65337ca8c0783fc27be60d476a5f6b75/jetified-android-jsc-r245459/AndroidManifest.xml:2:1-11:12
MERGED from [com.facebook.fresco:flipper:2.2.0] /Users/Celso/.gradle/caches/transforms-2/files-2.1/84c6a932a42f35f9b796c5d67e6eb742/jetified-flipper-2.2.0/AndroidManifest.xml:2:1-9:12
MERGED from [com.facebook.fresco:stetho:2.2.0] /Users/Celso/.gradle/caches/transforms-2/files-2.1/5f2c193a45b1b439ec8f5a8edcb37f33/jetified-stetho-2.2.0/AndroidManifest.xml:2:1-9:12
MERGED from [com.facebook.fresco:fresco:2.2.0] /Users/Celso/.gradle/caches/transforms-2/files-2.1/336cee0c87f467fe6bfb36840b0630b2/jetified-fresco-2.2.0/AndroidManifest.xml:2:1-9:12
MERGED from [com.facebook.fresco:drawee:2.2.0] /Users/Celso/.gradle/caches/transforms-2/files-2.1/8850ed829d25245e8497182323bc73d2/jetified-drawee-2.2.0/AndroidManifest.xml:2:1-9:12
MERGED from [com.facebook.fresco:nativeimagefilters:2.2.0] /Users/Celso/.gradle/caches/transforms-2/files-2.1/cedca5e04b0c20fa79ac1887f71f3325/jetified-nativeimagefilters-2.2.0/AndroidManifest.xml:2:1-9:12
MERGED from [com.facebook.fresco:memory-type-native:2.2.0] /Users/Celso/.gradle/caches/transforms-2/files-2.1/e5db14b71da4d91c0ca7d2ee268e707a/jetified-memory-type-native-2.2.0/AndroidManifest.xml:2:1-9:12
MERGED from [com.facebook.fresco:memory-type-java:2.2.0] /Users/Celso/.gradle/caches/transforms-2/files-2.1/3c0394800bb3c89c17ec23de03c5f2ca/jetified-memory-type-java-2.2.0/AndroidManifest.xml:2:1-9:12
MERGED from [com.facebook.fresco:imagepipeline-native:2.2.0] /Users/Celso/.gradle/caches/transforms-2/files-2.1/cf4b730f71bf97441bdf4ebe8cfeeb88/jetified-imagepipeline-native-2.2.0/AndroidManifest.xml:2:1-9:12
MERGED from [com.facebook.fresco:soloader:2.2.0] /Users/Celso/.gradle/caches/transforms-2/files-2.1/c35a46a0a862651f1e0a89250dcee30d/jetified-soloader-2.2.0/AndroidManifest.xml:2:1-9:12
MERGED from [com.facebook.soloader:soloader:0.10.1] /Users/Celso/.gradle/caches/transforms-2/files-2.1/5fb5c0c623111e89d0cb2cc6cbe55df8/jetified-soloader-0.10.1/AndroidManifest.xml:2:1-13:12
MERGED from [androidx.appcompat:appcompat:1.1.0] /Users/Celso/.gradle/caches/transforms-2/files-2.1/d14dbad7340cad958a2e361a440b498d/appcompat-1.1.0/AndroidManifest.xml:17:1-24:12
MERGED from [androidx.sqlite:sqlite-framework:2.1.0] /Users/Celso/.gradle/caches/transforms-2/files-2.1/ce476dc2f1f7d59691ad234de1ec2fb1/sqlite-framework-2.1.0/AndroidManifest.xml:17:1-24:12
MERGED from [com.facebook.fresco:imagepipeline-okhttp3:2.0.0] /Users/Celso/.gradle/caches/transforms-2/files-2.1/f66a3370e9e4f8cb0ae0c6936c538c41/jetified-imagepipeline-okhttp3-2.0.0/AndroidManifest.xml:2:1-9:12
MERGED from [com.facebook.fresco:memory-type-ashmem:2.2.0] /Users/Celso/.gradle/caches/transforms-2/files-2.1/fc37ff7af2e3c5de8e592a9550a0df07/jetified-memory-type-ashmem-2.2.0/AndroidManifest.xml:2:1-9:12
MERGED from [com.facebook.fresco:imagepipeline:2.2.0] /Users/Celso/.gradle/caches/transforms-2/files-2.1/cda5d9a1a957ef402e55e5ba5c5bfd6d/jetified-imagepipeline-2.2.0/AndroidManifest.xml:2:1-9:12
MERGED from [com.facebook.fresco:nativeimagetranscoder:2.2.0] /Users/Celso/.gradle/caches/transforms-2/files-2.1/8f540c10f5114d05b8ee24db3e19e1f8/jetified-nativeimagetranscoder-2.2.0/AndroidManifest.xml:2:1-9:12
MERGED from [com.facebook.fresco:imagepipeline-base:2.2.0] /Users/Celso/.gradle/caches/transforms-2/files-2.1/b51f59890c1c9ada8eed6d21cecc075e/jetified-imagepipeline-base-2.2.0/AndroidManifest.xml:2:1-9:12
MERGED from [androidx.appcompat:appcompat-resources:1.1.0] /Users/Celso/.gradle/caches/transforms-2/files-2.1/baebfc24ee3e9d675a4614c1f27f118a/jetified-appcompat-resources-1.1.0/AndroidManifest.xml:17:1-24:12
MERGED from [androidx.vectordrawable:vectordrawable-animated:1.1.0] /Users/Celso/.gradle/caches/transforms-2/files-2.1/2ee35bfe9d2e9019f071c4a047a96db2/vectordrawable-animated-1.1.0/AndroidManifest.xml:17:1-24:12
MERGED from [androidx.interpolator:interpolator:1.0.0] /Users/Celso/.gradle/caches/transforms-2/files-2.1/6e0f82970a69a6b386ee45a08ac362fe/interpolator-1.0.0/AndroidManifest.xml:17:1-22:12
MERGED from [androidx.fragment:fragment:1.1.0] /Users/Celso/.gradle/caches/transforms-2/files-2.1/ba80674a1a5fdce2b1b29eea5683af77/fragment-1.1.0/AndroidManifest.xml:17:1-24:12
MERGED from [androidx.drawerlayout:drawerlayout:1.0.0] /Users/Celso/.gradle/caches/transforms-2/files-2.1/22a5d9f52d495a432176451a4c4ba982/drawerlayout-1.0.0/AndroidManifest.xml:17:1-22:12
MERGED from [androidx.viewpager:viewpager:1.0.0] /Users/Celso/.gradle/caches/transforms-2/files-2.1/2f70304b103eacfab05dbe55739e869f/viewpager-1.0.0/AndroidManifest.xml:17:1-22:12
MERGED from [androidx.loader:loader:1.0.0] /Users/Celso/.gradle/caches/transforms-2/files-2.1/49dee3543bc65746b6bba9f83aa0b18a/loader-1.0.0/AndroidManifest.xml:17:1-22:12
MERGED from [androidx.activity:activity:1.0.0] /Users/Celso/.gradle/caches/transforms-2/files-2.1/68865d38a53fb5c240061f062e474515/jetified-activity-1.0.0/AndroidManifest.xml:17:1-24:12
MERGED from [androidx.vectordrawable:vectordrawable:1.1.0] /Users/Celso/.gradle/caches/transforms-2/files-2.1/361553562ce35cf8cf447832c4a7d1ec/vectordrawable-1.1.0/AndroidManifest.xml:17:1-24:12
MERGED from [androidx.customview:customview:1.0.0] /Users/Celso/.gradle/caches/transforms-2/files-2.1/86cf751735e9e9dd0416cce35c4a71a1/customview-1.0.0/AndroidManifest.xml:17:1-22:12
MERGED from [androidx.core:core:1.1.0] /Users/Celso/.gradle/caches/transforms-2/files-2.1/d67cd79abd1ca209502f51c69d23182b/core-1.1.0/AndroidManifest.xml:17:1-26:12
MERGED from [androidx.cursoradapter:cursoradapter:1.0.0] /Users/Celso/.gradle/caches/transforms-2/files-2.1/bae4382a703142a8f82a100a412243f1/cursoradapter-1.0.0/AndroidManifest.xml:17:1-22:12
MERGED from [androidx.sqlite:sqlite:2.1.0] /Users/Celso/.gradle/caches/transforms-2/files-2.1/74153744c3b76afb34d0c28a686a981b/sqlite-2.1.0/AndroidManifest.xml:17:1-24:12
MERGED from [androidx.versionedparcelable:versionedparcelable:1.1.0] /Users/Celso/.gradle/caches/transforms-2/files-2.1/af9af86a2035b10a0514f89f66cf8a9a/versionedparcelable-1.1.0/AndroidManifest.xml:17:1-27:12
MERGED from [androidx.lifecycle:lifecycle-runtime:2.1.0] /Users/Celso/.gradle/caches/transforms-2/files-2.1/e30defb91871c7bd72c698d035733320/lifecycle-runtime-2.1.0/AndroidManifest.xml:17:1-22:12
MERGED from [androidx.lifecycle:lifecycle-viewmodel:2.1.0] /Users/Celso/.gradle/caches/transforms-2/files-2.1/2b6a4e71d38d3b36d0c903aac26cfd25/lifecycle-viewmodel-2.1.0/AndroidManifest.xml:17:1-22:12
MERGED from [androidx.savedstate:savedstate:1.0.0] /Users/Celso/.gradle/caches/transforms-2/files-2.1/29e9e6ac99026fff5bb21139b2ad74ac/jetified-savedstate-1.0.0/AndroidManifest.xml:17:1-24:12
MERGED from [androidx.lifecycle:lifecycle-livedata:2.0.0] /Users/Celso/.gradle/caches/transforms-2/files-2.1/15faa7fdc535e832982b4615d300cb77/lifecycle-livedata-2.0.0/AndroidManifest.xml:17:1-22:12
MERGED from [androidx.lifecycle:lifecycle-livedata-core:2.0.0] /Users/Celso/.gradle/caches/transforms-2/files-2.1/033c1099bb4cd11be9138377da501d59/lifecycle-livedata-core-2.0.0/AndroidManifest.xml:17:1-22:12
MERGED from [androidx.arch.core:core-runtime:2.0.0] /Users/Celso/.gradle/caches/transforms-2/files-2.1/943631e3c5a6dfa67bece88add1d3fe3/core-runtime-2.0.0/AndroidManifest.xml:17:1-22:12
MERGED from [com.facebook.fresco:fbcore:2.2.0] /Users/Celso/.gradle/caches/transforms-2/files-2.1/5ff10ad0f2bea4b2419e86a549e99aac/jetified-fbcore-2.2.0/AndroidManifest.xml:2:1-9:12
MERGED from [com.facebook.fresco:ui-common:2.2.0] /Users/Celso/.gradle/caches/transforms-2/files-2.1/ffdaca04e33e18187dfc99a2b0ddad3b/jetified-ui-common-2.2.0/AndroidManifest.xml:2:1-9:12
INJECTED from /Users/Celso/Desktop/react/Capgemini/android/app/src/debug/AndroidManifest.xml:2:1-13:12
INJECTED from /Users/Celso/Desktop/react/Capgemini/android/app/src/debug/AndroidManifest.xml:2:1-13:12
INJECTED from /Users/Celso/Desktop/react/Capgemini/android/app/src/debug/AndroidManifest.xml:2:1-13:12
	package
		ADDED from /Users/Celso/Desktop/react/Capgemini/android/app/src/main/AndroidManifest.xml:2:3-26
		INJECTED from /Users/Celso/Desktop/react/Capgemini/android/app/src/main/AndroidManifest.xml
		ADDED from /Users/Celso/Desktop/react/Capgemini/android/app/src/main/AndroidManifest.xml:2:3-26
		INJECTED from /Users/Celso/Desktop/react/Capgemini/android/app/src/debug/AndroidManifest.xml
	android:versionName
		INJECTED from /Users/Celso/Desktop/react/Capgemini/android/app/src/main/AndroidManifest.xml
		ADDED from /Users/Celso/Desktop/react/Capgemini/android/app/src/main/AndroidManifest.xml:1:1-25:12
		INJECTED from /Users/Celso/Desktop/react/Capgemini/android/app/src/debug/AndroidManifest.xml
	xmlns:tools
		ADDED from /Users/Celso/Desktop/react/Capgemini/android/app/src/debug/AndroidManifest.xml:3:5-51
	android:versionCode
		INJECTED from /Users/Celso/Desktop/react/Capgemini/android/app/src/main/AndroidManifest.xml
		ADDED from /Users/Celso/Desktop/react/Capgemini/android/app/src/main/AndroidManifest.xml:1:1-25:12
		INJECTED from /Users/Celso/Desktop/react/Capgemini/android/app/src/debug/AndroidManifest.xml
	xmlns:android
		ADDED from /Users/Celso/Desktop/react/Capgemini/android/app/src/main/AndroidManifest.xml:1:11-69
uses-permission#android.permission.INTERNET
ADDED from /Users/Celso/Desktop/react/Capgemini/android/app/src/main/AndroidManifest.xml:4:5-67
MERGED from [com.facebook.flipper:flipper:0.75.1] /Users/Celso/.gradle/caches/transforms-2/files-2.1/a8f6015f96666ab8d93bfe5b64998bc8/jetified-flipper-0.75.1/AndroidManifest.xml:15:5-67
MERGED from [com.facebook.flipper:flipper:0.75.1] /Users/Celso/.gradle/caches/transforms-2/files-2.1/a8f6015f96666ab8d93bfe5b64998bc8/jetified-flipper-0.75.1/AndroidManifest.xml:15:5-67
	android:name
		ADDED from /Users/Celso/Desktop/react/Capgemini/android/app/src/main/AndroidManifest.xml:4:22-64
application
ADDED from /Users/Celso/Desktop/react/Capgemini/android/app/src/main/AndroidManifest.xml:6:5-24:19
MERGED from /Users/Celso/Desktop/react/Capgemini/android/app/src/main/AndroidManifest.xml:6:5-24:19
MERGED from /Users/Celso/Desktop/react/Capgemini/android/app/src/main/AndroidManifest.xml:6:5-24:19
MERGED from [com.facebook.react:react-native:0.64.1] /Users/Celso/.gradle/caches/transforms-2/files-2.1/8d2282471b47ce9a43adfd1155d78528/jetified-react-native-0.64.1/AndroidManifest.xml:11:5-20
MERGED from [com.facebook.react:react-native:0.64.1] /Users/Celso/.gradle/caches/transforms-2/files-2.1/8d2282471b47ce9a43adfd1155d78528/jetified-react-native-0.64.1/AndroidManifest.xml:11:5-20
MERGED from [com.facebook.soloader:soloader:0.10.1] /Users/Celso/.gradle/caches/transforms-2/files-2.1/5fb5c0c623111e89d0cb2cc6cbe55df8/jetified-soloader-0.10.1/AndroidManifest.xml:11:5-20
MERGED from [com.facebook.soloader:soloader:0.10.1] /Users/Celso/.gradle/caches/transforms-2/files-2.1/5fb5c0c623111e89d0cb2cc6cbe55df8/jetified-soloader-0.10.1/AndroidManifest.xml:11:5-20
MERGED from [androidx.core:core:1.1.0] /Users/Celso/.gradle/caches/transforms-2/files-2.1/d67cd79abd1ca209502f51c69d23182b/core-1.1.0/AndroidManifest.xml:24:5-89
MERGED from [androidx.core:core:1.1.0] /Users/Celso/.gradle/caches/transforms-2/files-2.1/d67cd79abd1ca209502f51c69d23182b/core-1.1.0/AndroidManifest.xml:24:5-89
MERGED from [androidx.versionedparcelable:versionedparcelable:1.1.0] /Users/Celso/.gradle/caches/transforms-2/files-2.1/af9af86a2035b10a0514f89f66cf8a9a/versionedparcelable-1.1.0/AndroidManifest.xml:24:5-25:19
MERGED from [androidx.versionedparcelable:versionedparcelable:1.1.0] /Users/Celso/.gradle/caches/transforms-2/files-2.1/af9af86a2035b10a0514f89f66cf8a9a/versionedparcelable-1.1.0/AndroidManifest.xml:24:5-25:19
	android:appComponentFactory
		ADDED from [androidx.core:core:1.1.0] /Users/Celso/.gradle/caches/transforms-2/files-2.1/d67cd79abd1ca209502f51c69d23182b/core-1.1.0/AndroidManifest.xml:24:18-86
	android:label
		ADDED from /Users/Celso/Desktop/react/Capgemini/android/app/src/main/AndroidManifest.xml:8:7-39
		ADDED from /Users/Celso/Desktop/react/Capgemini/android/app/src/main/AndroidManifest.xml:8:7-39
	tools:ignore
		ADDED from /Users/Celso/Desktop/react/Capgemini/android/app/src/debug/AndroidManifest.xml:10:9-48
	android:roundIcon
		ADDED from /Users/Celso/Desktop/react/Capgemini/android/app/src/main/AndroidManifest.xml:10:7-52
		ADDED from /Users/Celso/Desktop/react/Capgemini/android/app/src/main/AndroidManifest.xml:10:7-52
	tools:targetApi
		ADDED from /Users/Celso/Desktop/react/Capgemini/android/app/src/debug/AndroidManifest.xml:9:9-29
	android:icon
		ADDED from /Users/Celso/Desktop/react/Capgemini/android/app/src/main/AndroidManifest.xml:9:7-41
		ADDED from /Users/Celso/Desktop/react/Capgemini/android/app/src/main/AndroidManifest.xml:9:7-41
	android:allowBackup
		ADDED from /Users/Celso/Desktop/react/Capgemini/android/app/src/main/AndroidManifest.xml:11:7-34
		ADDED from /Users/Celso/Desktop/react/Capgemini/android/app/src/main/AndroidManifest.xml:11:7-34
	android:theme
		ADDED from /Users/Celso/Desktop/react/Capgemini/android/app/src/main/AndroidManifest.xml:12:7-38
		ADDED from /Users/Celso/Desktop/react/Capgemini/android/app/src/main/AndroidManifest.xml:12:7-38
	android:usesCleartextTraffic
		ADDED from /Users/Celso/Desktop/react/Capgemini/android/app/src/debug/AndroidManifest.xml:8:9-44
	android:name
		ADDED from /Users/Celso/Desktop/react/Capgemini/android/app/src/main/AndroidManifest.xml:7:7-38
		ADDED from /Users/Celso/Desktop/react/Capgemini/android/app/src/main/AndroidManifest.xml:7:7-38
activity#com.capgemini.MainActivity
ADDED from /Users/Celso/Desktop/react/Capgemini/android/app/src/main/AndroidManifest.xml:13:7-23:18
	android:label
		ADDED from /Users/Celso/Desktop/react/Capgemini/android/app/src/main/AndroidManifest.xml:15:9-41
	android:launchMode
		ADDED from /Users/Celso/Desktop/react/Capgemini/android/app/src/main/AndroidManifest.xml:17:9-40
	android:windowSoftInputMode
		ADDED from /Users/Celso/Desktop/react/Capgemini/android/app/src/main/AndroidManifest.xml:18:9-51
	android:configChanges
		ADDED from /Users/Celso/Desktop/react/Capgemini/android/app/src/main/AndroidManifest.xml:16:9-86
	android:name
		ADDED from /Users/Celso/Desktop/react/Capgemini/android/app/src/main/AndroidManifest.xml:14:9-37
intent-filter#action:name:android.intent.action.MAIN+category:name:android.intent.category.LAUNCHER
ADDED from /Users/Celso/Desktop/react/Capgemini/android/app/src/main/AndroidManifest.xml:19:9-22:25
action#android.intent.action.MAIN
ADDED from /Users/Celso/Desktop/react/Capgemini/android/app/src/main/AndroidManifest.xml:20:13-65
	android:name
		ADDED from /Users/Celso/Desktop/react/Capgemini/android/app/src/main/AndroidManifest.xml:20:21-62
category#android.intent.category.LAUNCHER
ADDED from /Users/Celso/Desktop/react/Capgemini/android/app/src/main/AndroidManifest.xml:21:13-73
	android:name
		ADDED from /Users/Celso/Desktop/react/Capgemini/android/app/src/main/AndroidManifest.xml:21:23-70
uses-sdk
INJECTED from /Users/Celso/Desktop/react/Capgemini/android/app/src/main/AndroidManifest.xml reason: use-sdk injection requested
INJECTED from /Users/Celso/Desktop/react/Capgemini/android/app/src/main/AndroidManifest.xml
INJECTED from /Users/Celso/Desktop/react/Capgemini/android/app/src/main/AndroidManifest.xml
MERGED from [com.facebook.flipper:flipper:0.75.1] /Users/Celso/.gradle/caches/transforms-2/files-2.1/a8f6015f96666ab8d93bfe5b64998bc8/jetified-flipper-0.75.1/AndroidManifest.xml:11:5-13:41
MERGED from [com.facebook.flipper:flipper:0.75.1] /Users/Celso/.gradle/caches/transforms-2/files-2.1/a8f6015f96666ab8d93bfe5b64998bc8/jetified-flipper-0.75.1/AndroidManifest.xml:11:5-13:41
MERGED from [com.facebook.flipper:flipper-network-plugin:0.75.1] /Users/Celso/.gradle/caches/transforms-2/files-2.1/d8279ebfbcca51b68586de1b9bc17210/jetified-flipper-network-plugin-0.75.1/AndroidManifest.xml:11:5-13:41
MERGED from [com.facebook.flipper:flipper-network-plugin:0.75.1] /Users/Celso/.gradle/caches/transforms-2/files-2.1/d8279ebfbcca51b68586de1b9bc17210/jetified-flipper-network-plugin-0.75.1/AndroidManifest.xml:11:5-13:41
MERGED from [com.facebook.flipper:flipper-fresco-plugin:0.75.1] /Users/Celso/.gradle/caches/transforms-2/files-2.1/13e0ca18817a9e59a8c4a94704ec8c3c/jetified-flipper-fresco-plugin-0.75.1/AndroidManifest.xml:11:5-13:41
MERGED from [com.facebook.flipper:flipper-fresco-plugin:0.75.1] /Users/Celso/.gradle/caches/transforms-2/files-2.1/13e0ca18817a9e59a8c4a94704ec8c3c/jetified-flipper-fresco-plugin-0.75.1/AndroidManifest.xml:11:5-13:41
MERGED from [com.facebook.react:react-native:0.64.1] /Users/Celso/.gradle/caches/transforms-2/files-2.1/8d2282471b47ce9a43adfd1155d78528/jetified-react-native-0.64.1/AndroidManifest.xml:7:5-9:41
MERGED from [com.facebook.react:react-native:0.64.1] /Users/Celso/.gradle/caches/transforms-2/files-2.1/8d2282471b47ce9a43adfd1155d78528/jetified-react-native-0.64.1/AndroidManifest.xml:7:5-9:41
MERGED from [androidx.swiperefreshlayout:swiperefreshlayout:1.0.0] /Users/Celso/.gradle/caches/transforms-2/files-2.1/5c64f35c4f864d4cd139ccbbff91ceb9/swiperefreshlayout-1.0.0/AndroidManifest.xml:20:5-44
MERGED from [androidx.swiperefreshlayout:swiperefreshlayout:1.0.0] /Users/Celso/.gradle/caches/transforms-2/files-2.1/5c64f35c4f864d4cd139ccbbff91ceb9/swiperefreshlayout-1.0.0/AndroidManifest.xml:20:5-44
MERGED from [org.webkit:android-jsc:r245459] /Users/Celso/.gradle/caches/transforms-2/files-2.1/65337ca8c0783fc27be60d476a5f6b75/jetified-android-jsc-r245459/AndroidManifest.xml:7:5-9:41
MERGED from [org.webkit:android-jsc:r245459] /Users/Celso/.gradle/caches/transforms-2/files-2.1/65337ca8c0783fc27be60d476a5f6b75/jetified-android-jsc-r245459/AndroidManifest.xml:7:5-9:41
MERGED from [com.facebook.fresco:flipper:2.2.0] /Users/Celso/.gradle/caches/transforms-2/files-2.1/84c6a932a42f35f9b796c5d67e6eb742/jetified-flipper-2.2.0/AndroidManifest.xml:5:5-7:41
MERGED from [com.facebook.fresco:flipper:2.2.0] /Users/Celso/.gradle/caches/transforms-2/files-2.1/84c6a932a42f35f9b796c5d67e6eb742/jetified-flipper-2.2.0/AndroidManifest.xml:5:5-7:41
MERGED from [com.facebook.fresco:stetho:2.2.0] /Users/Celso/.gradle/caches/transforms-2/files-2.1/5f2c193a45b1b439ec8f5a8edcb37f33/jetified-stetho-2.2.0/AndroidManifest.xml:5:5-7:41
MERGED from [com.facebook.fresco:stetho:2.2.0] /Users/Celso/.gradle/caches/transforms-2/files-2.1/5f2c193a45b1b439ec8f5a8edcb37f33/jetified-stetho-2.2.0/AndroidManifest.xml:5:5-7:41
MERGED from [com.facebook.fresco:fresco:2.2.0] /Users/Celso/.gradle/caches/transforms-2/files-2.1/336cee0c87f467fe6bfb36840b0630b2/jetified-fresco-2.2.0/AndroidManifest.xml:5:5-7:41
MERGED from [com.facebook.fresco:fresco:2.2.0] /Users/Celso/.gradle/caches/transforms-2/files-2.1/336cee0c87f467fe6bfb36840b0630b2/jetified-fresco-2.2.0/AndroidManifest.xml:5:5-7:41
MERGED from [com.facebook.fresco:drawee:2.2.0] /Users/Celso/.gradle/caches/transforms-2/files-2.1/8850ed829d25245e8497182323bc73d2/jetified-drawee-2.2.0/AndroidManifest.xml:5:5-7:41
MERGED from [com.facebook.fresco:drawee:2.2.0] /Users/Celso/.gradle/caches/transforms-2/files-2.1/8850ed829d25245e8497182323bc73d2/jetified-drawee-2.2.0/AndroidManifest.xml:5:5-7:41
MERGED from [com.facebook.fresco:nativeimagefilters:2.2.0] /Users/Celso/.gradle/caches/transforms-2/files-2.1/cedca5e04b0c20fa79ac1887f71f3325/jetified-nativeimagefilters-2.2.0/AndroidManifest.xml:5:5-7:41
MERGED from [com.facebook.fresco:nativeimagefilters:2.2.0] /Users/Celso/.gradle/caches/transforms-2/files-2.1/cedca5e04b0c20fa79ac1887f71f3325/jetified-nativeimagefilters-2.2.0/AndroidManifest.xml:5:5-7:41
MERGED from [com.facebook.fresco:memory-type-native:2.2.0] /Users/Celso/.gradle/caches/transforms-2/files-2.1/e5db14b71da4d91c0ca7d2ee268e707a/jetified-memory-type-native-2.2.0/AndroidManifest.xml:5:5-7:41
MERGED from [com.facebook.fresco:memory-type-native:2.2.0] /Users/Celso/.gradle/caches/transforms-2/files-2.1/e5db14b71da4d91c0ca7d2ee268e707a/jetified-memory-type-native-2.2.0/AndroidManifest.xml:5:5-7:41
MERGED from [com.facebook.fresco:memory-type-java:2.2.0] /Users/Celso/.gradle/caches/transforms-2/files-2.1/3c0394800bb3c89c17ec23de03c5f2ca/jetified-memory-type-java-2.2.0/AndroidManifest.xml:5:5-7:41
MERGED from [com.facebook.fresco:memory-type-java:2.2.0] /Users/Celso/.gradle/caches/transforms-2/files-2.1/3c0394800bb3c89c17ec23de03c5f2ca/jetified-memory-type-java-2.2.0/AndroidManifest.xml:5:5-7:41
MERGED from [com.facebook.fresco:imagepipeline-native:2.2.0] /Users/Celso/.gradle/caches/transforms-2/files-2.1/cf4b730f71bf97441bdf4ebe8cfeeb88/jetified-imagepipeline-native-2.2.0/AndroidManifest.xml:5:5-7:41
MERGED from [com.facebook.fresco:imagepipeline-native:2.2.0] /Users/Celso/.gradle/caches/transforms-2/files-2.1/cf4b730f71bf97441bdf4ebe8cfeeb88/jetified-imagepipeline-native-2.2.0/AndroidManifest.xml:5:5-7:41
MERGED from [com.facebook.fresco:soloader:2.2.0] /Users/Celso/.gradle/caches/transforms-2/files-2.1/c35a46a0a862651f1e0a89250dcee30d/jetified-soloader-2.2.0/AndroidManifest.xml:5:5-7:41
MERGED from [com.facebook.fresco:soloader:2.2.0] /Users/Celso/.gradle/caches/transforms-2/files-2.1/c35a46a0a862651f1e0a89250dcee30d/jetified-soloader-2.2.0/AndroidManifest.xml:5:5-7:41
MERGED from [com.facebook.soloader:soloader:0.10.1] /Users/Celso/.gradle/caches/transforms-2/files-2.1/5fb5c0c623111e89d0cb2cc6cbe55df8/jetified-soloader-0.10.1/AndroidManifest.xml:7:5-9:41
MERGED from [com.facebook.soloader:soloader:0.10.1] /Users/Celso/.gradle/caches/transforms-2/files-2.1/5fb5c0c623111e89d0cb2cc6cbe55df8/jetified-soloader-0.10.1/AndroidManifest.xml:7:5-9:41
MERGED from [androidx.appcompat:appcompat:1.1.0] /Users/Celso/.gradle/caches/transforms-2/files-2.1/d14dbad7340cad958a2e361a440b498d/appcompat-1.1.0/AndroidManifest.xml:20:5-22:41
MERGED from [androidx.appcompat:appcompat:1.1.0] /Users/Celso/.gradle/caches/transforms-2/files-2.1/d14dbad7340cad958a2e361a440b498d/appcompat-1.1.0/AndroidManifest.xml:20:5-22:41
MERGED from [androidx.sqlite:sqlite-framework:2.1.0] /Users/Celso/.gradle/caches/transforms-2/files-2.1/ce476dc2f1f7d59691ad234de1ec2fb1/sqlite-framework-2.1.0/AndroidManifest.xml:20:5-22:41
MERGED from [androidx.sqlite:sqlite-framework:2.1.0] /Users/Celso/.gradle/caches/transforms-2/files-2.1/ce476dc2f1f7d59691ad234de1ec2fb1/sqlite-framework-2.1.0/AndroidManifest.xml:20:5-22:41
MERGED from [com.facebook.fresco:imagepipeline-okhttp3:2.0.0] /Users/Celso/.gradle/caches/transforms-2/files-2.1/f66a3370e9e4f8cb0ae0c6936c538c41/jetified-imagepipeline-okhttp3-2.0.0/AndroidManifest.xml:5:5-7:41
MERGED from [com.facebook.fresco:imagepipeline-okhttp3:2.0.0] /Users/Celso/.gradle/caches/transforms-2/files-2.1/f66a3370e9e4f8cb0ae0c6936c538c41/jetified-imagepipeline-okhttp3-2.0.0/AndroidManifest.xml:5:5-7:41
MERGED from [com.facebook.fresco:memory-type-ashmem:2.2.0] /Users/Celso/.gradle/caches/transforms-2/files-2.1/fc37ff7af2e3c5de8e592a9550a0df07/jetified-memory-type-ashmem-2.2.0/AndroidManifest.xml:5:5-7:41
MERGED from [com.facebook.fresco:memory-type-ashmem:2.2.0] /Users/Celso/.gradle/caches/transforms-2/files-2.1/fc37ff7af2e3c5de8e592a9550a0df07/jetified-memory-type-ashmem-2.2.0/AndroidManifest.xml:5:5-7:41
MERGED from [com.facebook.fresco:imagepipeline:2.2.0] /Users/Celso/.gradle/caches/transforms-2/files-2.1/cda5d9a1a957ef402e55e5ba5c5bfd6d/jetified-imagepipeline-2.2.0/AndroidManifest.xml:5:5-7:41
MERGED from [com.facebook.fresco:imagepipeline:2.2.0] /Users/Celso/.gradle/caches/transforms-2/files-2.1/cda5d9a1a957ef402e55e5ba5c5bfd6d/jetified-imagepipeline-2.2.0/AndroidManifest.xml:5:5-7:41
MERGED from [com.facebook.fresco:nativeimagetranscoder:2.2.0] /Users/Celso/.gradle/caches/transforms-2/files-2.1/8f540c10f5114d05b8ee24db3e19e1f8/jetified-nativeimagetranscoder-2.2.0/AndroidManifest.xml:5:5-7:41
MERGED from [com.facebook.fresco:nativeimagetranscoder:2.2.0] /Users/Celso/.gradle/caches/transforms-2/files-2.1/8f540c10f5114d05b8ee24db3e19e1f8/jetified-nativeimagetranscoder-2.2.0/AndroidManifest.xml:5:5-7:41
MERGED from [com.facebook.fresco:imagepipeline-base:2.2.0] /Users/Celso/.gradle/caches/transforms-2/files-2.1/b51f59890c1c9ada8eed6d21cecc075e/jetified-imagepipeline-base-2.2.0/AndroidManifest.xml:5:5-7:41
MERGED from [com.facebook.fresco:imagepipeline-base:2.2.0] /Users/Celso/.gradle/caches/transforms-2/files-2.1/b51f59890c1c9ada8eed6d21cecc075e/jetified-imagepipeline-base-2.2.0/AndroidManifest.xml:5:5-7:41
MERGED from [androidx.appcompat:appcompat-resources:1.1.0] /Users/Celso/.gradle/caches/transforms-2/files-2.1/baebfc24ee3e9d675a4614c1f27f118a/jetified-appcompat-resources-1.1.0/AndroidManifest.xml:20:5-22:41
MERGED from [androidx.appcompat:appcompat-resources:1.1.0] /Users/Celso/.gradle/caches/transforms-2/files-2.1/baebfc24ee3e9d675a4614c1f27f118a/jetified-appcompat-resources-1.1.0/AndroidManifest.xml:20:5-22:41
MERGED from [androidx.vectordrawable:vectordrawable-animated:1.1.0] /Users/Celso/.gradle/caches/transforms-2/files-2.1/2ee35bfe9d2e9019f071c4a047a96db2/vectordrawable-animated-1.1.0/AndroidManifest.xml:20:5-22:41
MERGED from [androidx.vectordrawable:vectordrawable-animated:1.1.0] /Users/Celso/.gradle/caches/transforms-2/files-2.1/2ee35bfe9d2e9019f071c4a047a96db2/vectordrawable-animated-1.1.0/AndroidManifest.xml:20:5-22:41
MERGED from [androidx.interpolator:interpolator:1.0.0] /Users/Celso/.gradle/caches/transforms-2/files-2.1/6e0f82970a69a6b386ee45a08ac362fe/interpolator-1.0.0/AndroidManifest.xml:20:5-44
MERGED from [androidx.interpolator:interpolator:1.0.0] /Users/Celso/.gradle/caches/transforms-2/files-2.1/6e0f82970a69a6b386ee45a08ac362fe/interpolator-1.0.0/AndroidManifest.xml:20:5-44
MERGED from [androidx.fragment:fragment:1.1.0] /Users/Celso/.gradle/caches/transforms-2/files-2.1/ba80674a1a5fdce2b1b29eea5683af77/fragment-1.1.0/AndroidManifest.xml:20:5-22:41
MERGED from [androidx.fragment:fragment:1.1.0] /Users/Celso/.gradle/caches/transforms-2/files-2.1/ba80674a1a5fdce2b1b29eea5683af77/fragment-1.1.0/AndroidManifest.xml:20:5-22:41
MERGED from [androidx.drawerlayout:drawerlayout:1.0.0] /Users/Celso/.gradle/caches/transforms-2/files-2.1/22a5d9f52d495a432176451a4c4ba982/drawerlayout-1.0.0/AndroidManifest.xml:20:5-44
MERGED from [androidx.drawerlayout:drawerlayout:1.0.0] /Users/Celso/.gradle/caches/transforms-2/files-2.1/22a5d9f52d495a432176451a4c4ba982/drawerlayout-1.0.0/AndroidManifest.xml:20:5-44
MERGED from [androidx.viewpager:viewpager:1.0.0] /Users/Celso/.gradle/caches/transforms-2/files-2.1/2f70304b103eacfab05dbe55739e869f/viewpager-1.0.0/AndroidManifest.xml:20:5-44
MERGED from [androidx.viewpager:viewpager:1.0.0] /Users/Celso/.gradle/caches/transforms-2/files-2.1/2f70304b103eacfab05dbe55739e869f/viewpager-1.0.0/AndroidManifest.xml:20:5-44
MERGED from [androidx.loader:loader:1.0.0] /Users/Celso/.gradle/caches/transforms-2/files-2.1/49dee3543bc65746b6bba9f83aa0b18a/loader-1.0.0/AndroidManifest.xml:20:5-44
MERGED from [androidx.loader:loader:1.0.0] /Users/Celso/.gradle/caches/transforms-2/files-2.1/49dee3543bc65746b6bba9f83aa0b18a/loader-1.0.0/AndroidManifest.xml:20:5-44
MERGED from [androidx.activity:activity:1.0.0] /Users/Celso/.gradle/caches/transforms-2/files-2.1/68865d38a53fb5c240061f062e474515/jetified-activity-1.0.0/AndroidManifest.xml:20:5-22:41
MERGED from [androidx.activity:activity:1.0.0] /Users/Celso/.gradle/caches/transforms-2/files-2.1/68865d38a53fb5c240061f062e474515/jetified-activity-1.0.0/AndroidManifest.xml:20:5-22:41
MERGED from [androidx.vectordrawable:vectordrawable:1.1.0] /Users/Celso/.gradle/caches/transforms-2/files-2.1/361553562ce35cf8cf447832c4a7d1ec/vectordrawable-1.1.0/AndroidManifest.xml:20:5-22:41
MERGED from [androidx.vectordrawable:vectordrawable:1.1.0] /Users/Celso/.gradle/caches/transforms-2/files-2.1/361553562ce35cf8cf447832c4a7d1ec/vectordrawable-1.1.0/AndroidManifest.xml:20:5-22:41
MERGED from [androidx.customview:customview:1.0.0] /Users/Celso/.gradle/caches/transforms-2/files-2.1/86cf751735e9e9dd0416cce35c4a71a1/customview-1.0.0/AndroidManifest.xml:20:5-44
MERGED from [androidx.customview:customview:1.0.0] /Users/Celso/.gradle/caches/transforms-2/files-2.1/86cf751735e9e9dd0416cce35c4a71a1/customview-1.0.0/AndroidManifest.xml:20:5-44
MERGED from [androidx.core:core:1.1.0] /Users/Celso/.gradle/caches/transforms-2/files-2.1/d67cd79abd1ca209502f51c69d23182b/core-1.1.0/AndroidManifest.xml:20:5-22:41
MERGED from [androidx.core:core:1.1.0] /Users/Celso/.gradle/caches/transforms-2/files-2.1/d67cd79abd1ca209502f51c69d23182b/core-1.1.0/AndroidManifest.xml:20:5-22:41
MERGED from [androidx.cursoradapter:cursoradapter:1.0.0] /Users/Celso/.gradle/caches/transforms-2/files-2.1/bae4382a703142a8f82a100a412243f1/cursoradapter-1.0.0/AndroidManifest.xml:20:5-44
MERGED from [androidx.cursoradapter:cursoradapter:1.0.0] /Users/Celso/.gradle/caches/transforms-2/files-2.1/bae4382a703142a8f82a100a412243f1/cursoradapter-1.0.0/AndroidManifest.xml:20:5-44
MERGED from [androidx.sqlite:sqlite:2.1.0] /Users/Celso/.gradle/caches/transforms-2/files-2.1/74153744c3b76afb34d0c28a686a981b/sqlite-2.1.0/AndroidManifest.xml:20:5-22:41
MERGED from [androidx.sqlite:sqlite:2.1.0] /Users/Celso/.gradle/caches/transforms-2/files-2.1/74153744c3b76afb34d0c28a686a981b/sqlite-2.1.0/AndroidManifest.xml:20:5-22:41
MERGED from [androidx.versionedparcelable:versionedparcelable:1.1.0] /Users/Celso/.gradle/caches/transforms-2/files-2.1/af9af86a2035b10a0514f89f66cf8a9a/versionedparcelable-1.1.0/AndroidManifest.xml:20:5-22:41
MERGED from [androidx.versionedparcelable:versionedparcelable:1.1.0] /Users/Celso/.gradle/caches/transforms-2/files-2.1/af9af86a2035b10a0514f89f66cf8a9a/versionedparcelable-1.1.0/AndroidManifest.xml:20:5-22:41
MERGED from [androidx.lifecycle:lifecycle-runtime:2.1.0] /Users/Celso/.gradle/caches/transforms-2/files-2.1/e30defb91871c7bd72c698d035733320/lifecycle-runtime-2.1.0/AndroidManifest.xml:20:5-44
MERGED from [androidx.lifecycle:lifecycle-runtime:2.1.0] /Users/Celso/.gradle/caches/transforms-2/files-2.1/e30defb91871c7bd72c698d035733320/lifecycle-runtime-2.1.0/AndroidManifest.xml:20:5-44
MERGED from [androidx.lifecycle:lifecycle-viewmodel:2.1.0] /Users/Celso/.gradle/caches/transforms-2/files-2.1/2b6a4e71d38d3b36d0c903aac26cfd25/lifecycle-viewmodel-2.1.0/AndroidManifest.xml:20:5-44
MERGED from [androidx.lifecycle:lifecycle-viewmodel:2.1.0] /Users/Celso/.gradle/caches/transforms-2/files-2.1/2b6a4e71d38d3b36d0c903aac26cfd25/lifecycle-viewmodel-2.1.0/AndroidManifest.xml:20:5-44
MERGED from [androidx.savedstate:savedstate:1.0.0] /Users/Celso/.gradle/caches/transforms-2/files-2.1/29e9e6ac99026fff5bb21139b2ad74ac/jetified-savedstate-1.0.0/AndroidManifest.xml:20:5-22:41
MERGED from [androidx.savedstate:savedstate:1.0.0] /Users/Celso/.gradle/caches/transforms-2/files-2.1/29e9e6ac99026fff5bb21139b2ad74ac/jetified-savedstate-1.0.0/AndroidManifest.xml:20:5-22:41
MERGED from [androidx.lifecycle:lifecycle-livedata:2.0.0] /Users/Celso/.gradle/caches/transforms-2/files-2.1/15faa7fdc535e832982b4615d300cb77/lifecycle-livedata-2.0.0/AndroidManifest.xml:20:5-44
MERGED from [androidx.lifecycle:lifecycle-livedata:2.0.0] /Users/Celso/.gradle/caches/transforms-2/files-2.1/15faa7fdc535e832982b4615d300cb77/lifecycle-livedata-2.0.0/AndroidManifest.xml:20:5-44
MERGED from [androidx.lifecycle:lifecycle-livedata-core:2.0.0] /Users/Celso/.gradle/caches/transforms-2/files-2.1/033c1099bb4cd11be9138377da501d59/lifecycle-livedata-core-2.0.0/AndroidManifest.xml:20:5-44
MERGED from [androidx.lifecycle:lifecycle-livedata-core:2.0.0] /Users/Celso/.gradle/caches/transforms-2/files-2.1/033c1099bb4cd11be9138377da501d59/lifecycle-livedata-core-2.0.0/AndroidManifest.xml:20:5-44
MERGED from [androidx.arch.core:core-runtime:2.0.0] /Users/Celso/.gradle/caches/transforms-2/files-2.1/943631e3c5a6dfa67bece88add1d3fe3/core-runtime-2.0.0/AndroidManifest.xml:20:5-44
MERGED from [androidx.arch.core:core-runtime:2.0.0] /Users/Celso/.gradle/caches/transforms-2/files-2.1/943631e3c5a6dfa67bece88add1d3fe3/core-runtime-2.0.0/AndroidManifest.xml:20:5-44
MERGED from [com.facebook.fresco:fbcore:2.2.0] /Users/Celso/.gradle/caches/transforms-2/files-2.1/5ff10ad0f2bea4b2419e86a549e99aac/jetified-fbcore-2.2.0/AndroidManifest.xml:5:5-7:41
MERGED from [com.facebook.fresco:fbcore:2.2.0] /Users/Celso/.gradle/caches/transforms-2/files-2.1/5ff10ad0f2bea4b2419e86a549e99aac/jetified-fbcore-2.2.0/AndroidManifest.xml:5:5-7:41
MERGED from [com.facebook.fresco:ui-common:2.2.0] /Users/Celso/.gradle/caches/transforms-2/files-2.1/ffdaca04e33e18187dfc99a2b0ddad3b/jetified-ui-common-2.2.0/AndroidManifest.xml:5:5-7:41
MERGED from [com.facebook.fresco:ui-common:2.2.0] /Users/Celso/.gradle/caches/transforms-2/files-2.1/ffdaca04e33e18187dfc99a2b0ddad3b/jetified-ui-common-2.2.0/AndroidManifest.xml:5:5-7:41
INJECTED from /Users/Celso/Desktop/react/Capgemini/android/app/src/debug/AndroidManifest.xml
INJECTED from /Users/Celso/Desktop/react/Capgemini/android/app/src/debug/AndroidManifest.xml
	android:targetSdkVersion
		INJECTED from /Users/Celso/Desktop/react/Capgemini/android/app/src/main/AndroidManifest.xml
		INJECTED from /Users/Celso/Desktop/react/Capgemini/android/app/src/debug/AndroidManifest.xml
	android:minSdkVersion
		INJECTED from /Users/Celso/Desktop/react/Capgemini/android/app/src/main/AndroidManifest.xml
		INJECTED from /Users/Celso/Desktop/react/Capgemini/android/app/src/debug/AndroidManifest.xml
uses-permission#android.permission.SYSTEM_ALERT_WINDOW
ADDED from /Users/Celso/Desktop/react/Capgemini/android/app/src/debug/AndroidManifest.xml:5:5-77
	android:name
		ADDED from /Users/Celso/Desktop/react/Capgemini/android/app/src/debug/AndroidManifest.xml:5:22-75
activity#com.facebook.react.devsupport.DevSettingsActivity
ADDED from /Users/Celso/Desktop/react/Capgemini/android/app/src/debug/AndroidManifest.xml:11:9-86
	android:name
		ADDED from /Users/Celso/Desktop/react/Capgemini/android/app/src/debug/AndroidManifest.xml:11:19-83
uses-permission#android.permission.ACCESS_WIFI_STATE
ADDED from [com.facebook.flipper:flipper:0.75.1] /Users/Celso/.gradle/caches/transforms-2/files-2.1/a8f6015f96666ab8d93bfe5b64998bc8/jetified-flipper-0.75.1/AndroidManifest.xml:16:5-76
	android:name
		ADDED from [com.facebook.flipper:flipper:0.75.1] /Users/Celso/.gradle/caches/transforms-2/files-2.1/a8f6015f96666ab8d93bfe5b64998bc8/jetified-flipper-0.75.1/AndroidManifest.xml:16:22-73
